# MagicaVoxel @ Ephtracy

# group
o 

# material
mtllib Floor1Fut.mtl
usemtl palette

# normals
vn -1 0 0
vn 1 0 0
vn 0 0 1
vn 0 0 -1
vn 0 -1 0
vn 0 1 0

# texcoords
vt 0.0214844 0.5
vt 0.162109 0.5
vt 0.166016 0.5
vt 0.169922 0.5
vt 0.185547 0.5
vt 0.306641 0.5

# verts
v 0 0 0
v 0 0 -3
v 0 0.2 0
v 0 0.2 -3
v 0.1 0.2 -0.1
v 0.1 0.2 -0.3
v 0.1 0.2 -0.8
v 0.1 0.2 -1.4
v 0.1 0.2 -1.5
v 0.1 0.2 -2.1
v 0.1 0.2 -2.2
v 0.1 0.2 -2.8
v 0.1 0.3 -0.1
v 0.1 0.3 -0.3
v 0.1 0.3 -0.8
v 0.1 0.3 -1.4
v 0.1 0.3 -1.5
v 0.1 0.3 -2.1
v 0.1 0.3 -2.2
v 0.1 0.3 -2.8
v 0.2 0.2 -0.5
v 0.2 0.2 -0.8
v 0.2 0.2 -1.4
v 0.2 0.2 -1.5
v 0.2 0.2 -2.1
v 0.2 0.2 -2.2
v 0.2 0.2 -2.8
v 0.2 0.2 -2.9
v 0.2 0.3 -0.5
v 0.2 0.3 -0.8
v 0.2 0.3 -1.4
v 0.2 0.3 -1.5
v 0.2 0.3 -2.1
v 0.2 0.3 -2.2
v 0.2 0.3 -2.8
v 0.2 0.3 -2.9
v 0.3 0.2 -0.4
v 0.3 0.2 -0.5
v 0.3 0.3 -0.4
v 0.3 0.3 -0.5
v 0.4 0.2 -0.3
v 0.4 0.2 -0.4
v 0.4 0.3 -0.3
v 0.4 0.3 -0.4
v 0.5 0.2 -0.2
v 0.5 0.2 -0.3
v 0.5 0.2 -2.5
v 0.5 0.2 -2.7
v 0.5 0.3 -0.2
v 0.5 0.3 -0.3
v 0.5 0.3 -2.5
v 0.5 0.3 -2.7
v 0.8 0.2 -0.1
v 0.8 0.2 -0.2
v 0.8 0.3 -0.1
v 0.8 0.3 -0.2
v 1.7 0.2 -0.1
v 1.7 0.2 -0.2
v 1.7 0.3 -0.1
v 1.7 0.3 -0.2
v 2.7 0.2 -0.3
v 2.7 0.2 -0.5
v 2.7 0.2 -2.7
v 2.7 0.2 -2.9
v 2.7 0.3 -0.3
v 2.7 0.3 -0.5
v 2.7 0.3 -2.7
v 2.7 0.3 -2.9
v 0.3 0.2 -0.1
v 0.3 0.2 -0.3
v 0.3 0.2 -2.5
v 0.3 0.2 -2.7
v 0.3 0.3 -0.1
v 0.3 0.3 -0.3
v 0.3 0.3 -2.5
v 0.3 0.3 -2.7
v 1.3 0.2 -0.1
v 1.3 0.2 -0.2
v 1.3 0.3 -0.1
v 1.3 0.3 -0.2
v 1.5 0.2 -2.8
v 1.5 0.2 -2.9
v 1.5 0.3 -2.8
v 1.5 0.3 -2.9
v 2.3 0.2 -2.7
v 2.3 0.2 -2.8
v 2.3 0.3 -2.7
v 2.3 0.3 -2.8
v 2.5 0.2 -0.3
v 2.5 0.2 -0.5
v 2.5 0.3 -0.3
v 2.5 0.3 -0.5
v 2.6 0.2 -2.6
v 2.6 0.2 -2.7
v 2.6 0.3 -2.6
v 2.6 0.3 -2.7
v 2.7 0.2 -2.5
v 2.7 0.2 -2.6
v 2.7 0.3 -2.5
v 2.7 0.3 -2.6
v 2.8 0.2 -0.1
v 2.8 0.2 -0.2
v 2.8 0.2 -0.3
v 2.8 0.2 -1.1
v 2.8 0.2 -1.2
v 2.8 0.2 -2.2
v 2.8 0.2 -2.5
v 2.8 0.2 -2.8
v 2.8 0.2 -2.9
v 2.8 0.3 -0.1
v 2.8 0.3 -0.3
v 2.8 0.3 -1.1
v 2.8 0.3 -1.2
v 2.8 0.3 -2.2
v 2.8 0.3 -2.5
v 2.8 0.3 -2.8
v 2.8 0.3 -2.9
v 2.9 0.2 -0.3
v 2.9 0.2 -1.1
v 2.9 0.2 -1.2
v 2.9 0.2 -2.2
v 2.9 0.2 -2.7
v 2.9 0.2 -2.8
v 2.9 0.3 -0.3
v 2.9 0.3 -1.1
v 2.9 0.3 -1.2
v 2.9 0.3 -2.2
v 2.9 0.3 -2.7
v 2.9 0.3 -2.8
v 3 0 0
v 3 0 -3
v 3 0.2 0
v 3 0.2 -3
v 0 0 0
v 0 0.2 0
v 3 0 0
v 3 0.2 0
v 0.1 0.2 -0.1
v 0.1 0.3 -0.1
v 0.3 0.2 -0.1
v 0.3 0.3 -0.1
v 0.8 0.2 -0.1
v 0.8 0.3 -0.1
v 1.3 0.2 -0.1
v 1.3 0.3 -0.1
v 1.7 0.2 -0.1
v 1.7 0.3 -0.1
v 2.8 0.2 -0.1
v 2.8 0.3 -0.1
v 0.5 0.2 -0.2
v 0.5 0.3 -0.2
v 0.8 0.2 -0.2
v 0.8 0.3 -0.2
v 1.3 0.2 -0.2
v 1.3 0.3 -0.2
v 1.7 0.2 -0.2
v 1.7 0.3 -0.2
v 0.4 0.2 -0.3
v 0.4 0.3 -0.3
v 0.5 0.2 -0.3
v 0.5 0.3 -0.3
v 2.8 0.2 -0.3
v 2.8 0.3 -0.3
v 2.9 0.2 -0.3
v 2.9 0.3 -0.3
v 0.3 0.2 -0.4
v 0.3 0.3 -0.4
v 0.4 0.2 -0.4
v 0.4 0.3 -0.4
v 0.2 0.2 -0.5
v 0.2 0.3 -0.5
v 0.3 0.2 -0.5
v 0.3 0.3 -0.5
v 2.5 0.2 -0.5
v 2.5 0.3 -0.5
v 2.7 0.2 -0.5
v 2.7 0.3 -0.5
v 0.1 0.2 -0.8
v 0.1 0.3 -0.8
v 0.2 0.2 -0.8
v 0.2 0.3 -0.8
v 2.8 0.2 -1.2
v 2.8 0.3 -1.2
v 2.9 0.2 -1.2
v 2.9 0.3 -1.2
v 0.1 0.2 -1.5
v 0.1 0.3 -1.5
v 0.2 0.2 -1.5
v 0.2 0.3 -1.5
v 0.1 0.2 -2.2
v 0.1 0.3 -2.2
v 0.2 0.2 -2.2
v 0.2 0.3 -2.2
v 0.3 0.2 -2.7
v 0.3 0.3 -2.7
v 0.5 0.2 -2.7
v 0.5 0.3 -2.7
v 2.7 0.2 -2.7
v 2.7 0.3 -2.7
v 2.9 0.2 -2.7
v 2.9 0.3 -2.7
v 0.1 0.2 -0.3
v 0.1 0.3 -0.3
v 0.3 0.2 -0.3
v 0.3 0.3 -0.3
v 2.5 0.2 -0.3
v 2.5 0.3 -0.3
v 2.7 0.2 -0.3
v 2.7 0.3 -0.3
v 2.8 0.2 -1.1
v 2.8 0.3 -1.1
v 2.9 0.2 -1.1
v 2.9 0.3 -1.1
v 0.1 0.2 -1.4
v 0.1 0.3 -1.4
v 0.2 0.2 -1.4
v 0.2 0.3 -1.4
v 0.1 0.2 -2.1
v 0.1 0.3 -2.1
v 0.2 0.2 -2.1
v 0.2 0.3 -2.1
v 2.8 0.2 -2.2
v 2.8 0.3 -2.2
v 2.9 0.2 -2.2
v 2.9 0.3 -2.2
v 0.3 0.2 -2.5
v 0.3 0.3 -2.5
v 0.5 0.2 -2.5
v 0.5 0.3 -2.5
v 2.7 0.2 -2.5
v 2.7 0.3 -2.5
v 2.8 0.2 -2.5
v 2.8 0.3 -2.5
v 2.6 0.2 -2.6
v 2.6 0.3 -2.6
v 2.7 0.2 -2.6
v 2.7 0.3 -2.6
v 2.3 0.2 -2.7
v 2.3 0.3 -2.7
v 2.6 0.2 -2.7
v 2.6 0.3 -2.7
v 0.1 0.2 -2.8
v 0.1 0.3 -2.8
v 0.2 0.2 -2.8
v 0.2 0.3 -2.8
v 1.5 0.2 -2.8
v 1.5 0.3 -2.8
v 2.3 0.2 -2.8
v 2.3 0.3 -2.8
v 2.8 0.2 -2.8
v 2.8 0.3 -2.8
v 2.9 0.2 -2.8
v 2.9 0.3 -2.8
v 0.2 0.2 -2.9
v 0.2 0.3 -2.9
v 1.5 0.2 -2.9
v 1.5 0.3 -2.9
v 2.7 0.2 -2.9
v 2.7 0.3 -2.9
v 2.8 0.2 -2.9
v 2.8 0.3 -2.9
v 0 0 -3
v 0 0.2 -3
v 3 0 -3
v 3 0.2 -3
v 0 0 0
v 3 0 0
v 0 0 -3
v 3 0 -3
v 0 0.2 0
v 3 0.2 0
v 0.1 0.2 -0.1
v 0.3 0.2 -0.1
v 0.8 0.2 -0.1
v 1.3 0.2 -0.1
v 1.7 0.2 -0.1
v 2.8 0.2 -0.1
v 0.5 0.2 -0.2
v 0.8 0.2 -0.2
v 1.3 0.2 -0.2
v 1.7 0.2 -0.2
v 2.8 0.2 -0.2
v 2.9 0.2 -0.2
v 0.1 0.2 -0.3
v 0.3 0.2 -0.3
v 0.4 0.2 -0.3
v 0.5 0.2 -0.3
v 2.5 0.2 -0.3
v 2.7 0.2 -0.3
v 2.8 0.2 -0.3
v 2.9 0.2 -0.3
v 0.3 0.2 -0.4
v 0.4 0.2 -0.4
v 0.2 0.2 -0.5
v 0.3 0.2 -0.5
v 2.5 0.2 -0.5
v 2.7 0.2 -0.5
v 0.1 0.2 -0.8
v 0.2 0.2 -0.8
v 2.8 0.2 -1.1
v 2.9 0.2 -1.1
v 2.8 0.2 -1.2
v 2.9 0.2 -1.2
v 0.1 0.2 -1.4
v 0.2 0.2 -1.4
v 0.1 0.2 -1.5
v 0.2 0.2 -1.5
v 0.1 0.2 -2.1
v 0.2 0.2 -2.1
v 0.1 0.2 -2.2
v 0.2 0.2 -2.2
v 2.8 0.2 -2.2
v 2.9 0.2 -2.2
v 0.3 0.2 -2.5
v 0.5 0.2 -2.5
v 2.7 0.2 -2.5
v 2.8 0.2 -2.5
v 2.6 0.2 -2.6
v 2.7 0.2 -2.6
v 0.3 0.2 -2.7
v 0.5 0.2 -2.7
v 2.3 0.2 -2.7
v 2.6 0.2 -2.7
v 2.7 0.2 -2.7
v 2.9 0.2 -2.7
v 0.1 0.2 -2.8
v 0.2 0.2 -2.8
v 1.5 0.2 -2.8
v 2.3 0.2 -2.8
v 2.8 0.2 -2.8
v 2.9 0.2 -2.8
v 0.2 0.2 -2.9
v 1.5 0.2 -2.9
v 2.7 0.2 -2.9
v 2.8 0.2 -2.9
v 0 0.2 -3
v 3 0.2 -3
v 0.1 0.3 -0.1
v 0.3 0.3 -0.1
v 0.8 0.3 -0.1
v 1.3 0.3 -0.1
v 1.7 0.3 -0.1
v 2.8 0.3 -0.1
v 0.5 0.3 -0.2
v 0.8 0.3 -0.2
v 1.3 0.3 -0.2
v 1.7 0.3 -0.2
v 0.1 0.3 -0.3
v 0.3 0.3 -0.3
v 0.4 0.3 -0.3
v 0.5 0.3 -0.3
v 2.5 0.3 -0.3
v 2.7 0.3 -0.3
v 2.8 0.3 -0.3
v 2.9 0.3 -0.3
v 0.3 0.3 -0.4
v 0.4 0.3 -0.4
v 0.2 0.3 -0.5
v 0.3 0.3 -0.5
v 2.5 0.3 -0.5
v 2.7 0.3 -0.5
v 0.1 0.3 -0.8
v 0.2 0.3 -0.8
v 2.8 0.3 -1.1
v 2.9 0.3 -1.1
v 2.8 0.3 -1.2
v 2.9 0.3 -1.2
v 0.1 0.3 -1.4
v 0.2 0.3 -1.4
v 0.1 0.3 -1.5
v 0.2 0.3 -1.5
v 0.1 0.3 -2.1
v 0.2 0.3 -2.1
v 0.1 0.3 -2.2
v 0.2 0.3 -2.2
v 2.8 0.3 -2.2
v 2.9 0.3 -2.2
v 0.3 0.3 -2.5
v 0.5 0.3 -2.5
v 2.7 0.3 -2.5
v 2.8 0.3 -2.5
v 2.6 0.3 -2.6
v 2.7 0.3 -2.6
v 0.3 0.3 -2.7
v 0.5 0.3 -2.7
v 2.3 0.3 -2.7
v 2.6 0.3 -2.7
v 2.7 0.3 -2.7
v 2.9 0.3 -2.7
v 0.1 0.3 -2.8
v 0.2 0.3 -2.8
v 1.5 0.3 -2.8
v 2.3 0.3 -2.8
v 2.8 0.3 -2.8
v 2.9 0.3 -2.8
v 0.2 0.3 -2.9
v 1.5 0.3 -2.9
v 2.7 0.3 -2.9
v 2.8 0.3 -2.9

# faces
f 3/3/1 2/3/1 1/3/1
f 4/3/1 2/3/1 3/3/1
f 13/2/1 6/2/1 5/2/1
f 14/2/1 6/2/1 13/2/1
f 15/4/1 8/4/1 7/4/1
f 16/4/1 8/4/1 15/4/1
f 17/4/1 10/4/1 9/4/1
f 18/4/1 10/4/1 17/4/1
f 19/4/1 12/4/1 11/4/1
f 20/4/1 12/4/1 19/4/1
f 29/4/1 22/4/1 21/4/1
f 30/4/1 22/4/1 29/4/1
f 31/4/1 24/4/1 23/4/1
f 32/4/1 24/4/1 31/4/1
f 33/4/1 26/4/1 25/4/1
f 34/4/1 26/4/1 33/4/1
f 35/4/1 28/4/1 27/4/1
f 36/4/1 28/4/1 35/4/1
f 39/4/1 38/4/1 37/4/1
f 40/4/1 38/4/1 39/4/1
f 43/4/1 42/4/1 41/4/1
f 44/4/1 42/4/1 43/4/1
f 49/4/1 46/4/1 45/4/1
f 50/4/1 46/4/1 49/4/1
f 51/4/1 48/4/1 47/4/1
f 52/4/1 48/4/1 51/4/1
f 55/4/1 54/4/1 53/4/1
f 56/4/1 54/4/1 55/4/1
f 59/4/1 58/4/1 57/4/1
f 60/4/1 58/4/1 59/4/1
f 65/4/1 62/4/1 61/4/1
f 66/4/1 62/4/1 65/4/1
f 67/2/1 64/2/1 63/2/1
f 68/2/1 64/2/1 67/2/1
f 69/2/2 70/2/2 73/2/2
f 73/2/2 70/2/2 74/2/2
f 71/4/2 72/4/2 75/4/2
f 75/4/2 72/4/2 76/4/2
f 77/4/2 78/4/2 79/4/2
f 79/4/2 78/4/2 80/4/2
f 81/4/2 82/4/2 83/4/2
f 83/4/2 82/4/2 84/4/2
f 85/4/2 86/4/2 87/4/2
f 87/4/2 86/4/2 88/4/2
f 89/4/2 90/4/2 91/4/2
f 91/4/2 90/4/2 92/4/2
f 93/4/2 94/4/2 95/4/2
f 95/4/2 94/4/2 96/4/2
f 97/4/2 98/4/2 99/4/2
f 99/4/2 98/4/2 100/4/2
f 101/4/2 102/4/2 110/4/2
f 102/4/2 103/4/2 110/4/2
f 110/4/2 103/4/2 111/4/2
f 104/4/2 105/4/2 112/4/2
f 112/4/2 105/4/2 113/4/2
f 106/4/2 107/4/2 114/4/2
f 114/4/2 107/4/2 115/4/2
f 108/2/2 109/2/2 116/2/2
f 116/2/2 109/2/2 117/2/2
f 118/4/2 119/4/2 124/4/2
f 124/4/2 119/4/2 125/4/2
f 120/4/2 121/4/2 126/4/2
f 126/4/2 121/4/2 127/4/2
f 122/2/2 123/2/2 128/2/2
f 128/2/2 123/2/2 129/2/2
f 130/3/2 131/3/2 132/3/2
f 132/3/2 131/3/2 133/3/2
f 136/3/3 135/3/3 134/3/3
f 137/3/3 135/3/3 136/3/3
f 140/2/3 139/2/3 138/2/3
f 141/2/3 139/2/3 140/2/3
f 144/4/3 143/4/3 142/4/3
f 145/4/3 143/4/3 144/4/3
f 148/4/3 147/4/3 146/4/3
f 149/4/3 147/4/3 148/4/3
f 152/4/3 151/4/3 150/4/3
f 153/4/3 151/4/3 152/4/3
f 156/4/3 155/4/3 154/4/3
f 157/4/3 155/4/3 156/4/3
f 160/4/3 159/4/3 158/4/3
f 161/4/3 159/4/3 160/4/3
f 164/4/3 163/4/3 162/4/3
f 165/4/3 163/4/3 164/4/3
f 168/4/3 167/4/3 166/4/3
f 169/4/3 167/4/3 168/4/3
f 172/4/3 171/4/3 170/4/3
f 173/4/3 171/4/3 172/4/3
f 176/4/3 175/4/3 174/4/3
f 177/4/3 175/4/3 176/4/3
f 180/4/3 179/4/3 178/4/3
f 181/4/3 179/4/3 180/4/3
f 184/4/3 183/4/3 182/4/3
f 185/4/3 183/4/3 184/4/3
f 188/4/3 187/4/3 186/4/3
f 189/4/3 187/4/3 188/4/3
f 192/4/3 191/4/3 190/4/3
f 193/4/3 191/4/3 192/4/3
f 196/4/3 195/4/3 194/4/3
f 197/4/3 195/4/3 196/4/3
f 200/2/3 199/2/3 198/2/3
f 201/2/3 199/2/3 200/2/3
f 202/2/4 203/2/4 204/2/4
f 204/2/4 203/2/4 205/2/4
f 206/4/4 207/4/4 208/4/4
f 208/4/4 207/4/4 209/4/4
f 210/4/4 211/4/4 212/4/4
f 212/4/4 211/4/4 213/4/4
f 214/4/4 215/4/4 216/4/4
f 216/4/4 215/4/4 217/4/4
f 218/4/4 219/4/4 220/4/4
f 220/4/4 219/4/4 221/4/4
f 222/4/4 223/4/4 224/4/4
f 224/4/4 223/4/4 225/4/4
f 226/4/4 227/4/4 228/4/4
f 228/4/4 227/4/4 229/4/4
f 230/4/4 231/4/4 232/4/4
f 232/4/4 231/4/4 233/4/4
f 234/4/4 235/4/4 236/4/4
f 236/4/4 235/4/4 237/4/4
f 238/4/4 239/4/4 240/4/4
f 240/4/4 239/4/4 241/4/4
f 242/4/4 243/4/4 244/4/4
f 244/4/4 243/4/4 245/4/4
f 246/4/4 247/4/4 248/4/4
f 248/4/4 247/4/4 249/4/4
f 250/2/4 251/2/4 252/2/4
f 252/2/4 251/2/4 253/2/4
f 254/4/4 255/4/4 256/4/4
f 256/4/4 255/4/4 257/4/4
f 258/2/4 259/2/4 260/2/4
f 260/2/4 259/2/4 261/2/4
f 262/3/4 263/3/4 264/3/4
f 264/3/4 263/3/4 265/3/4
f 268/3/5 267/3/5 266/3/5
f 269/3/5 267/3/5 268/3/5
f 270/3/6 271/3/6 272/3/6
f 272/3/6 271/3/6 273/3/6
f 273/3/6 271/3/6 274/3/6
f 274/3/6 271/3/6 275/3/6
f 275/3/6 271/3/6 276/3/6
f 276/3/6 271/3/6 277/3/6
f 273/3/6 274/3/6 278/3/6
f 278/3/6 274/3/6 279/3/6
f 275/3/6 276/3/6 280/3/6
f 280/3/6 276/3/6 281/3/6
f 277/3/6 271/3/6 282/3/6
f 282/3/6 271/3/6 283/3/6
f 270/3/6 272/3/6 284/3/6
f 273/3/6 278/3/6 285/3/6
f 285/3/6 278/3/6 286/3/6
f 286/3/6 278/3/6 287/3/6
f 282/1/6 283/1/6 290/1/6
f 283/3/6 271/3/6 291/3/6
f 290/1/6 283/1/6 291/1/6
f 284/3/6 285/3/6 292/3/6
f 285/3/6 286/3/6 292/3/6
f 292/3/6 286/3/6 293/3/6
f 284/3/6 292/3/6 294/3/6
f 294/3/6 292/3/6 295/3/6
f 288/1/6 289/1/6 296/1/6
f 296/1/6 289/1/6 297/1/6
f 270/3/6 284/3/6 298/3/6
f 284/3/6 294/3/6 298/3/6
f 298/3/6 294/3/6 299/3/6
f 291/3/6 271/3/6 301/3/6
f 300/3/6 301/3/6 302/3/6
f 301/3/6 271/3/6 303/3/6
f 302/3/6 301/3/6 303/3/6
f 270/3/6 298/3/6 304/3/6
f 270/3/6 304/3/6 306/3/6
f 304/3/6 305/3/6 306/3/6
f 306/3/6 305/3/6 307/3/6
f 270/3/6 306/3/6 308/3/6
f 270/3/6 308/3/6 310/3/6
f 308/3/6 309/3/6 310/3/6
f 310/3/6 309/3/6 311/3/6
f 303/3/6 271/3/6 313/3/6
f 312/3/6 313/3/6 317/3/6
f 316/3/6 317/3/6 319/3/6
f 314/1/6 315/1/6 320/1/6
f 320/1/6 315/1/6 321/1/6
f 318/3/6 319/3/6 323/3/6
f 319/3/6 317/3/6 324/3/6
f 323/3/6 319/3/6 324/3/6
f 313/3/6 271/3/6 325/3/6
f 324/3/6 317/3/6 325/3/6
f 317/3/6 313/3/6 325/3/6
f 270/3/6 310/3/6 326/3/6
f 323/3/6 324/3/6 329/3/6
f 322/3/6 323/3/6 329/3/6
f 325/3/6 271/3/6 331/3/6
f 326/3/6 327/3/6 332/3/6
f 328/3/6 329/3/6 333/3/6
f 329/3/6 324/3/6 334/3/6
f 333/3/6 329/3/6 334/3/6
f 330/3/6 331/3/6 335/3/6
f 326/3/6 332/3/6 336/3/6
f 334/3/6 335/3/6 336/3/6
f 333/3/6 334/3/6 336/3/6
f 270/3/6 326/3/6 336/3/6
f 332/3/6 333/3/6 336/3/6
f 335/3/6 331/3/6 337/3/6
f 336/3/6 335/3/6 337/3/6
f 331/3/6 271/3/6 337/3/6
f 340/4/6 341/4/6 345/4/6
f 345/4/6 341/4/6 346/4/6
f 342/4/6 343/4/6 347/4/6
f 338/2/6 339/2/6 348/2/6
f 348/2/6 339/2/6 349/2/6
f 346/4/6 347/4/6 351/4/6
f 345/4/6 346/4/6 351/4/6
f 344/4/6 345/4/6 351/4/6
f 347/4/6 343/4/6 352/4/6
f 351/4/6 347/4/6 352/4/6
f 352/4/6 343/4/6 353/4/6
f 353/4/6 343/4/6 354/4/6
f 350/4/6 351/4/6 357/4/6
f 351/4/6 352/4/6 357/4/6
f 356/4/6 357/4/6 359/4/6
f 357/4/6 352/4/6 360/4/6
f 359/4/6 357/4/6 360/4/6
f 354/4/6 355/4/6 361/4/6
f 353/4/6 354/4/6 361/4/6
f 359/4/6 360/4/6 363/4/6
f 360/4/6 361/4/6 363/4/6
f 358/4/6 359/4/6 363/4/6
f 361/4/6 355/4/6 364/4/6
f 362/4/6 363/4/6 364/4/6
f 363/4/6 361/4/6 364/4/6
f 364/4/6 355/4/6 365/4/6
f 362/4/6 364/4/6 366/4/6
f 362/4/6 366/4/6 368/4/6
f 366/4/6 367/4/6 368/4/6
f 368/4/6 367/4/6 369/4/6
f 369/4/6 367/4/6 371/4/6
f 370/4/6 371/4/6 372/4/6
f 371/4/6 367/4/6 373/4/6
f 372/4/6 371/4/6 373/4/6
f 373/4/6 367/4/6 375/4/6
f 375/4/6 367/4/6 376/4/6
f 376/4/6 367/4/6 377/4/6
f 374/4/6 375/4/6 378/4/6
f 375/4/6 376/4/6 378/4/6
f 378/4/6 376/4/6 379/4/6
f 379/4/6 376/4/6 380/4/6
f 380/4/6 376/4/6 381/4/6
f 379/4/6 380/4/6 382/4/6
f 382/4/6 380/4/6 383/4/6
f 374/4/6 378/4/6 384/4/6
f 379/4/6 382/4/6 385/4/6
f 385/4/6 382/4/6 386/4/6
f 386/4/6 382/4/6 387/4/6
f 385/4/6 386/4/6 390/4/6
f 384/4/6 385/4/6 390/4/6
f 374/4/6 384/4/6 390/4/6
f 390/4/6 386/4/6 391/4/6
f 391/4/6 386/4/6 392/4/6
f 392/4/6 386/4/6 393/4/6
f 388/2/6 389/2/6 394/2/6
f 394/2/6 389/2/6 395/2/6
f 391/4/6 392/4/6 396/4/6
f 396/4/6 392/4/6 397/4/6
f 388/2/6 394/2/6 398/2/6
f 398/2/6 394/2/6 399/2/6
